[gd_scene load_steps=6 format=2]

[ext_resource path="res://src/tilesets/Enviroment.tres" type="TileSet" id=1]
[ext_resource path="res://src/ui/font.tres" type="DynamicFont" id=2]
[ext_resource path="res://assets/original/7.png" type="Texture" id=3]
[ext_resource path="res://src/ui/TextBox.gd" type="Script" id=4]

[sub_resource type="Animation" id=1]
resource_name = "text"
tracks/0/type = "value"
tracks/0/path = NodePath("AnimationPlayer/RichTextLabel:percent_visible")
tracks/0/interp = 1
tracks/0/loop_wrap = true
tracks/0/imported = false
tracks/0/enabled = true
tracks/0/keys = {
"times": PoolRealArray( 0, 1 ),
"transitions": PoolRealArray( 1, 1 ),
"update": 0,
"values": [ 0.0, 1.0 ]
}

[node name="TextBox" type="Node2D"]
pause_mode = 2
script = ExtResource( 4 )

[node name="Background" type="Sprite" parent="."]
position = Vector2( 503.5, 120.5 )
scale = Vector2( 44.4375, 23.375 )
texture = ExtResource( 3 )
region_enabled = true
region_rect = Rect2( 8, 8, 16, 8 )

[node name="AnimationPlayer" type="AnimationPlayer" parent="."]
anims/text = SubResource( 1 )

[node name="RichTextLabel" type="RichTextLabel" parent="AnimationPlayer"]
anchor_left = 0.0976562
anchor_right = 0.0976562
margin_left = 59.0
margin_top = 39.0
margin_right = 1045.0
margin_bottom = 270.0
rect_scale = Vector2( 0.7, 0.7 )
size_flags_horizontal = 8
custom_fonts/normal_font = ExtResource( 2 )
bbcode_enabled = true
bbcode_text = "loper"
visible_characters = 0
percent_visible = 0.0
text = "loper"
scroll_active = false
__meta__ = {
"_edit_use_anchors_": false
}

[node name="Border" type="TileMap" parent="."]
position = Vector2( 120, 0 )
scale = Vector2( 3, 3 )
tile_set = ExtResource( 1 )
cell_size = Vector2( 16, 16 )
collision_layer = 0
collision_mask = 0
format = 1
tile_data = PoolIntArray( 0, 9, 0, 1, -1610612726, 0, 2, -1610612726, 0, 3, -1610612726, 0, 4, -1610612726, 0, 5, -1610612726, 0, 6, -1610612726, 0, 7, -1610612726, 0, 8, -1610612726, 0, 9, -1610612726, 0, 10, -1610612726, 0, 11, -1610612726, 0, 12, -1610612726, 0, 13, -1610612726, 0, 14, -1610612726, 0, 15, -1610612727, 0, 65536, 1610612746, 0, 65551, 1610612746, 0, 131072, 1610612746, 0, 131087, 1610612746, 0, 196608, 1610612746, 0, 196623, 1610612746, 0, 262144, -1073741815, 0, 262145, -1610612726, 0, 262146, -1610612726, 0, 262147, -1610612726, 0, 262148, -1610612726, 0, 262149, -1610612726, 0, 262150, -1610612726, 0, 262151, -1610612726, 0, 262152, -1610612726, 0, 262153, -1610612726, 0, 262154, -1610612726, 0, 262155, -1610612726, 0, 262156, -1610612726, 0, 262157, -1610612726, 0, 262158, -1610612726, 0, 262159, 1610612745, 0 )
