[gd_scene load_steps=3 format=2]

[ext_resource path="res://assets/2box.png" type="Texture" id=1]

[sub_resource type="Gradient" id=1]
offsets = PoolRealArray( 0.729258, 1 )
colors = PoolColorArray( 1, 1, 1, 1, 0, 0, 0, 0 )

[node name="Dash" type="CPUParticles2D"]
emitting = false
lifetime = 0.3
one_shot = true
explosiveness = 0.9
texture = ExtResource( 1 )
spread = 20.0
gravity = Vector2( 0, 0 )
initial_velocity = 120.0
linear_accel = -10.0
linear_accel_random = 0.2
scale_amount = 0.05
color_ramp = SubResource( 1 )
